<?xml version="1.0" standalone="no"?>
<!DOCTYPE svg PUBLIC "-//W3C//DTD SVG 1.1//EN" "http://www.w3.org/Graphics/SVG/1.1/DTD/svg11.dtd" >
<svg xmlns="http://www.w3.org/2000/svg">
<metadata>Generated by IcoMoon</metadata>
<defs>
<font id="cymorg" horiz-adv-x="1024">
<font-face units-per-em="1024" ascent="960" descent="-64" />
<missing-glyph horiz-adv-x="1024" />
<glyph unicode="&#x20;" horiz-adv-x="512" d="" />
<glyph unicode="&#xe900;" glyph-name="alert" horiz-adv-x="827" d="M704.985 439.611v109.765c0.001 0.255 0.001 0.556 0.001 0.857 0 83.081-33.601 158.315-87.955 212.852l0.008-0.008c-32.586 33.014-72.82 58.398-117.832 73.286l-2.094 0.6v9.177c0 50.105-40.618 90.722-90.722 90.722s-90.722-40.618-90.722-90.722v0-9.413c-121.729-41.868-207.638-155.393-207.638-288.982 0-0.451 0.001-0.902 0.003-1.352v0.070-106.811c0-0.267 0.001-0.582 0.001-0.898 0-108.866-32.171-210.219-87.525-295.069l1.272 2.079h769.26c-53.961 82.697-86.057 183.931-86.057 292.662 0 0.417 0 0.835 0.001 1.252v-0.065zM588.012 549.376c0.001 0.202 0.001 0.44 0.001 0.679 0 50.457-20.388 96.152-53.375 129.297l0.007-0.007c-32.528 33.048-77.744 53.524-127.743 53.524-0.104 0-0.209 0-0.313 0h0.016v59.077c0.089 0 0.194 0 0.299 0 66.179 0 126.023-27.123 169.023-70.859l0.033-0.033c43.616-43.826 70.579-104.258 70.579-170.988 0-0.312-0.001-0.623-0.002-0.935v0.048h-58.722zM235.166 86.607c14.29-82.769 85.547-144.934 171.323-144.934s157.033 62.165 171.175 143.899l0.148 1.035h-342.646z" />
<glyph unicode="&#xe901;" glyph-name="budget" d="M503.174 933.181c-0.029 0-0.063 0-0.098 0-263.057 0-476.306-213.25-476.306-476.306s213.25-476.306 476.306-476.306c263.057 0 476.306 213.25 476.306 476.306v0c0 0.058 0 0.126 0 0.195 0 262.949-213.162 476.111-476.111 476.111-0.034 0-0.068 0-0.103 0h0.005zM570.514 166.79v-90.99h-126.781v91.916c-83.835 10.205-149.128 77.605-155.996 161.547l-0.042 0.635h93.33c4.876-50.030 39.010-88.844 126.196-88.844 93.574 0 114.298 46.665 114.298 75.727 0 39.302-21.211 76.702-126.781 101.912-118.101 28.331-199.046 77.141-199.046 174.811 0 81.676 65.975 135.022 148.090 152.917v91.672h126.781v-92.648c76.644-15.663 133.826-81.557 135.943-161.177l0.005-0.225h-93.818c-2.584 52.858-30.476 88.844-105.57 88.844-71.436 0-114.298-32.134-114.298-78.36 0-40.229 30.964-65.975 126.781-90.99s199.046-65.975 199.046-186.27c0-86.894-65.682-134.778-148.139-150.479z" />
<glyph unicode="&#xe902;" glyph-name="company-info" d="M921.6 198.703v104.588c-0.707 55.473-45.841 100.171-101.415 100.171-0.346 0-0.692-0.002-1.038-0.005h-273.029v91.741c115.338 15.64 203.485 112.855 204.799 230.916l0.001 0.136c-3.229 129.493-108.97 233.234-238.941 233.234s-235.712-103.741-238.935-232.935l-0.006-0.299c1.315-118.197 89.462-215.411 203.581-230.916l1.219-0.136v-91.695h-273.036c-0.293 0.003-0.639 0.005-0.985 0.005-55.574 0-100.708-44.698-101.414-100.104l-0.001-0.067v-104.588c-59.31-14.295-102.691-66.897-102.691-129.632 0-73.546 59.621-133.167 133.167-133.167 1.281 0 2.557 0.018 3.829 0.054l-0.187-0.004c1.018-0.028 2.217-0.044 3.42-0.044 73.546 0 133.167 59.621 133.167 133.167 0 62.655-43.27 115.203-101.557 129.393l-0.911 0.187v104.588c0.209 18.503 15.257 33.422 33.79 33.422 0.132 0 0.263-0.001 0.394-0.002h273.062v-137.961c-59.37-15.704-102.423-68.938-102.423-132.228 0-75.422 61.142-136.564 136.564-136.564s136.564 61.142 136.564 136.564c0 63.29-43.053 116.524-101.47 132.013l-0.953 0.215v137.961h273.036c0.098 0.001 0.213 0.002 0.328 0.002 18.516 0 33.554-14.892 33.789-33.352v-104.656c-59.37-15.704-102.423-68.938-102.423-132.228 0-75.422 61.142-136.564 136.564-136.564s136.564 61.142 136.564 136.564c0 63.29-43.053 116.524-101.47 132.013l-0.953 0.215z" />
<glyph unicode="&#xe903;" glyph-name="game" horiz-adv-x="1092" d="M945.835 471.279c-0.068 0-0.149 0-0.23 0-27.92 0-53.975-7.981-76.009-21.786l0.6 0.35c-3.987-2.531-8.843-4.034-14.050-4.034-4.881 0-9.454 1.32-13.381 3.623l0.125-0.068c-8.22 4.809-13.654 13.594-13.654 23.648 0 0.038 0 0.076 0 0.114v-0.006 176.879c-0.193 27.164-22.239 49.114-49.421 49.152h-213.542c-9.864 0.098-18.44 5.518-23.005 13.522l-0.069 0.132c-2.429 4.001-3.867 8.836-3.867 14.008 0 4.884 1.282 9.468 3.528 13.434l-0.071-0.136c11.517 20.749 18.296 45.502 18.296 71.839 0 0.064 0 0.128 0 0.193v-0.010c0.022 0.941 0.034 2.050 0.034 3.162 0 80.91-65.59 146.5-146.5 146.5s-146.5-65.59-146.5-146.5c0-1.112 0.012-2.221 0.037-3.327l-0.003 0.165c0-0.054 0-0.119 0-0.183 0-26.336 6.779-51.090 18.687-72.61l-0.391 0.771c2.196-3.845 3.49-8.45 3.49-13.358 0-5.147-1.424-9.962-3.9-14.072l0.069 0.123c-4.645-8.155-13.252-13.581-23.132-13.653h-213.821c-27.13-0.039-49.113-22.022-49.152-49.148v-172.582c0-0.007 0-0.015 0-0.023 0-9.831 5.195-18.448 12.989-23.257l0.118-0.068c3.924-2.426 8.682-3.864 13.776-3.864 4.662 0 9.042 1.204 12.847 3.319l-0.135-0.069c20.022 11.214 43.937 17.818 69.394 17.818 0.084 0 0.167 0 0.251 0h-0.013c80.66-1.784 145.364-67.593 145.364-148.514s-64.704-146.73-145.198-148.511l-0.166-0.003c-0.065 0-0.143 0-0.22 0-25.463 0-49.384 6.604-70.143 18.193l0.731-0.375c-3.685 2.059-8.086 3.272-12.769 3.272-5.069 0-9.805-1.42-13.835-3.884l0.116 0.066c-7.912-4.876-13.107-13.494-13.107-23.325 0-0.032 0-0.064 0-0.096v0.005-182.818c0.077-27.142 22.021-49.134 49.137-49.288h730.878c27.202 0.115 49.232 22.097 49.425 49.27v187.205c0 0.012 0 0.026 0 0.040 0 10.054 5.434 18.839 13.524 23.579l0.129 0.070c3.802 2.235 8.375 3.556 13.256 3.556 5.207 0 10.063-1.503 14.159-4.098l-0.108 0.064c21.435-13.455 47.49-21.436 75.41-21.436 0.081 0 0.162 0 0.242 0h-0.013c80.616 1.84 145.263 67.626 145.263 148.512 0 80.958-64.763 146.79-145.307 148.514l-0.161 0.003z" />
<glyph unicode="&#xe904;" glyph-name="info" d="M491.827 920.883c-0.030 0-0.066 0-0.102 0-268.094 0-485.427-217.333-485.427-485.427s217.333-485.427 485.427-485.427c268.094 0 485.427 217.333 485.427 485.427v0c-0.783 267.742-217.59 484.585-485.243 485.427h-0.081zM540.365 192.717h-97.28v291.123h97.28v-291.277zM540.365 581.069h-97.28v97.331h97.28v-97.28z" />
<glyph unicode="&#xe905;" glyph-name="logout" horiz-adv-x="964" d="M481.882 408.606c0.259-0.003 0.564-0.005 0.87-0.005 21.786 0 41.483 8.945 55.619 23.363l0.012 0.013c14.838 13.743 24.095 33.328 24.095 55.075 0 0.099 0 0.197-0.001 0.296v-0.015 393.939c0 0.083 0.001 0.182 0.001 0.281 0 21.748-9.257 41.333-24.046 55.031l-0.049 0.045c-14.453 14.45-34.418 23.387-56.471 23.387s-42.017-8.937-56.471-23.387v0c-14.838-13.743-24.095-33.328-24.095-55.075 0-0.099 0-0.197 0.001-0.296v0.015-393.879c0-0.083-0.001-0.182-0.001-0.281 0-21.748 9.257-41.333 24.046-55.031l0.049-0.045c14.162-14.466 33.891-23.435 55.714-23.435 0.255 0 0.511 0.001 0.765 0.004h-0.039zM913.348 619.43c-34.621 67.185-82.686 122.957-141.010 165.508l-1.326 0.922c-13.147 10.124-29.847 16.225-47.971 16.225-4.115 0-8.157-0.315-12.103-0.921l0.441 0.056c-21.806-2.423-40.527-13.915-52.555-30.561l-0.151-0.219c-10.162-12.547-16.314-28.703-16.314-46.296 0-4.178 0.347-8.274 1.013-12.263l-0.060 0.432c2.907-21.507 14.403-39.876 30.861-51.831l0.22-0.152c39.737-29.213 71.81-66.506 94.223-109.623l0.829-1.752c21.164-40.696 33.578-88.862 33.578-139.927 0-44.299-9.342-86.417-26.163-124.49l0.777 1.972c-17.072-39.151-40.245-72.552-68.693-100.618l-0.035-0.035c-28.707-27.991-62.68-50.742-100.271-66.606l-2.129-0.798c-36.792-15.766-79.609-24.932-124.567-24.932s-87.774 9.167-126.682 25.733l2.116-0.8c-39.719 16.664-73.691 39.414-102.468 67.469l0.068-0.066c-28.481 28.103-51.653 61.503-67.931 98.614l-0.797 2.039c-16.069 36.119-25.426 78.26-25.426 122.586 0 51.040 12.406 99.182 34.367 141.576l-0.809-1.717c23.167 44.843 55.138 82.13 93.889 110.767l0.861 0.608c16.668 12.116 28.16 30.481 31.037 51.587l0.044 0.396c0.607 3.556 0.954 7.653 0.954 11.831 0 17.593-6.152 33.75-16.423 46.435l0.109-0.139c-12.095 16.821-30.705 28.303-52.061 30.748l-0.343 0.032c-3.534 0.549-7.61 0.863-11.76 0.863-18.289 0-35.154-6.097-48.674-16.368l0.199 0.145c-59.383-43.449-107.239-99.109-140.511-163.525l-1.223-2.604c-31.815-60.777-50.482-132.763-50.482-209.108 0-0.709 0.002-1.418 0.005-2.127v0.11c-0.002-0.466-0.003-1.018-0.003-1.569 0-65.821 14.060-128.358 39.339-184.772l-1.147 2.865c25.618-58.564 60.319-108.529 102.89-150.537l0.052-0.051c43.183-41.98 94.286-76.083 150.816-99.82l3.206-1.195c55.221-23.743 119.499-37.55 187-37.55s131.779 13.807 190.161 38.75l-3.16-1.2c59.524 24.995 110.44 59.087 153.585 101.117l-0.105-0.102c42.62 42.062 77.32 92.026 101.743 147.533l1.199 3.056c24.132 53.549 38.192 116.086 38.192 181.907 0 0.552-0.001 1.103-0.003 1.655v-0.085c0.003 0.642 0.005 1.402 0.005 2.162 0 76.29-18.644 148.225-51.625 211.497l1.202-2.535z" />
<glyph unicode="&#xe906;" glyph-name="message" horiz-adv-x="1260" d="M120.99 644.372q23.631-17.487 144.148-103.66t184.241-132.726l29.932-22.134q22.843-17.093 37.967-27.648t36.549-23.631c11.587-7.38 24.918-13.992 38.954-19.146l1.454-0.467c10.421-3.921 22.462-6.298 35.026-6.536l0.105-0.002h1.497c12.659 0.213 24.705 2.562 35.881 6.702l-0.75-0.243c15.489 5.617 28.821 12.23 41.263 20.12l-0.854-0.506q21.425 13.076 36.549 23.631t37.967 27.648 29.854 22.213l329.177 236.308c33.979 24.628 62.505 54.357 85.073 88.381l0.785 1.259c21.312 30.729 34.167 68.733 34.5 109.721l0.001 0.083c0.009 0.524 0.014 1.142 0.014 1.762 0 31.416-12.772 59.85-33.408 80.39l-0.004 0.004c-19.578 21.056-47.434 34.187-78.356 34.187-0.145 0-0.291 0-0.436-0.001h-1035.635c-1.611 0.094-3.495 0.147-5.392 0.147-31.551 0-59.655-14.757-77.786-37.746l-0.16-0.21c-18.268-24.595-29.243-55.555-29.243-89.078 0-1.915 0.036-3.821 0.107-5.719l-0.008 0.274c2.298-38.007 16.513-72.306 38.918-99.633l-0.243 0.305c22.976-32.711 50.221-60.507 81.326-83.355l0.988-0.692zM1189.967 566.548q-230.636-161.477-350.208-250.959-40.094-30.562-65.063-47.262c-19.044-12.628-40.905-24.323-63.861-33.923l-2.62-0.972c-22.679-10.636-49.175-17.126-77.114-17.797l-0.238-0.005h-1.418c-28.176 0.676-54.673 7.166-78.563 18.309l1.211-0.507c-25.576 10.572-47.438 22.267-67.968 35.817l1.486-0.922q-24.97 17.093-65.063 47.262-94.917 72.074-349.657 250.959c-26.817 18.506-50.086 39.273-70.523 62.585l-0.37 0.43v-577.615c-0.010-0.573-0.016-1.248-0.016-1.925 0-31.333 12.643-59.713 33.106-80.316l-0.006 0.006c19.496-20.781 47.132-33.727 77.79-33.727 0.593 0 1.186 0.005 1.777 0.015l-0.089-0.001h1035.264c0.373-0.005 0.813-0.007 1.254-0.007 30.883 0 58.698 13.136 78.162 34.125l0.063 0.068c20.409 20.601 33.019 48.958 33.019 80.261 0 0.639-0.005 1.276-0.016 1.912l0.001-0.096v577.615c-20.756-23.735-43.83-44.583-69.122-62.51l-1.219-0.82z" />
<glyph unicode="&#xe907;" glyph-name="profile" horiz-adv-x="745" d="M376.506 550.4c-0.326-0.002-0.712-0.003-1.098-0.003-27.254 0-53.151 5.809-76.521 16.258l1.19-0.476c-24.359 10.759-45.090 25.452-62.35 43.495l-0.068 0.072c-17.394 18.28-31.466 39.912-41.125 63.801l-0.487 1.362c-9.546 23.315-15.086 50.373-15.086 78.725 0 0.551 0.002 1.101 0.006 1.651l-0.001-0.084c-0.004 0.481-0.006 1.049-0.006 1.618 0 28.079 5.542 54.863 15.593 79.319l-0.506-1.39c10.228 25.078 24.287 46.561 41.69 64.828l-0.079-0.083c17.404 18.188 38.107 33.052 61.173 43.659l1.245 0.513c22.15 10.319 48.087 16.34 75.43 16.34 0.351 0 0.701-0.001 1.051-0.003h-0.054c0.38 0.003 0.829 0.005 1.278 0.005 27.089 0 52.771-6.023 75.781-16.803l-1.096 0.461c24.093-11.197 44.615-26.031 61.833-44.049l0.073-0.077c17.374-18.273 31.578-39.76 41.601-63.446l0.523-1.391c9.864-23.038 15.598-49.847 15.598-77.996 0-0.529-0.002-1.057-0.006-1.585v0.081c0.002-0.377 0.004-0.824 0.004-1.27 0-28.42-5.733-55.5-16.105-80.149l0.508 1.361c-10.473-25.216-24.688-46.821-42.208-65.253l0.085 0.090c-17.214-18.034-37.763-32.712-60.682-43.072l-1.223-0.495c-22.077-10.116-47.893-16.014-75.086-16.014-0.308 0-0.616 0.001-0.923 0.002h0.047zM534.761 507.904c1.359 0.035 2.959 0.055 4.564 0.055 32.783 0 63.629-8.293 90.555-22.894l-1.003 0.498c26.368-14.636 48.278-34.226 65.136-57.689l0.4-0.586c16.634-23.499 29.678-50.926 37.574-80.457l0.407-1.789c7.833-28.038 12.335-60.235 12.335-93.483 0-0.255 0-0.509-0.001-0.764v0.040-297.379c0.13-0.744 0.204-1.601 0.204-2.475 0-8.329-6.752-15.081-15.081-15.081-0.613 0-1.218 0.037-1.812 0.108l0.072-0.007h-103.005c-0.522-0.064-1.127-0.101-1.74-0.101-8.329 0-15.081 6.752-15.081 15.081 0 0.874 0.074 1.731 0.217 2.564l-0.013-0.089v259.258c-0.256 6.235-2.364 11.932-5.785 16.609l0.059-0.085c-4.301 5.363-10.852 8.767-18.199 8.767s-13.899-3.404-18.164-8.722l-0.035-0.046c-3.33-4.541-5.433-10.168-5.723-16.269l-0.003-0.068v-259.258c0.005-0.145 0.007-0.317 0.007-0.488 0-4.743-2.004-9.018-5.211-12.024l-0.009-0.008c-3.148-3.026-7.433-4.89-12.154-4.89-0.113 0-0.225 0.001-0.337 0.003h-344.419c-0.537-0.068-1.158-0.106-1.788-0.106-8.329 0-15.081 6.752-15.081 15.081 0 0.876 0.075 1.735 0.218 2.57l-0.013-0.089v259.258c-0.194 6.042-1.897 11.647-4.743 16.502l0.089-0.164c-3.621 5.245-9.599 8.639-16.37 8.639-0.908 0-1.801-0.061-2.677-0.179l0.102 0.011c-0.807 0.116-1.739 0.183-2.687 0.183-6.876 0-12.934-3.5-16.491-8.815l-0.045-0.072c-2.759-4.69-4.463-10.295-4.653-16.283l-0.001-0.055v-259.258c0.005-0.145 0.007-0.317 0.007-0.488 0-4.743-2.004-9.018-5.211-12.024l-0.009-0.008c-3.154-3.058-7.462-4.944-12.209-4.944-0.208 0-0.415 0.004-0.621 0.011l0.030-0.001h-98.676c-0.7-0.112-1.507-0.176-2.328-0.176-8.56 0-15.5 6.939-15.5 15.5 0 0.735 0.051 1.458 0.15 2.166l-0.009-0.082v297.425c0 0.062 0 0.135 0 0.209 0 33.436 4.553 65.809 13.074 96.532l-0.599-2.533c8.323 31.353 21.55 58.792 38.999 82.983l-0.506-0.737c17.386 23.881 39.209 43.43 64.393 57.75l1.004 0.525c25.871 14.115 56.666 22.415 89.4 22.415 1.854 0 3.703-0.027 5.544-0.080l-0.271 0.006h323.491z" />
<glyph unicode="&#xe908;" glyph-name="settings" horiz-adv-x="1088" d="M1084.736 504.832c-3.783 14.607-16.847 25.221-32.389 25.221-0.201 0-0.401-0.002-0.601-0.005h0.030c-0.488-0.008-1.065-0.012-1.642-0.012-62.421 0-113.024 50.603-113.024 113.024 0 33.15 14.272 62.967 37.006 83.642l0.092 0.082c5.642 5.209 9.164 12.644 9.164 20.9 0 6.628-2.27 12.727-6.074 17.561l0.046-0.061c-24.268 30.711-50.97 57.676-80.379 81.422l-0.965 0.754c-4.839 3.877-11.052 6.222-17.813 6.222-8.376 0-15.911-3.599-21.143-9.336l-0.020-0.023c-21.601-22.532-51.947-36.534-85.564-36.534-15.259 0-29.845 2.885-43.241 8.14l0.805-0.278c-41.145 17.729-69.426 57.934-69.426 104.744 0 2.237 0.065 4.459 0.192 6.664l-0.014-0.305c0.033 0.511 0.052 1.109 0.052 1.711 0 14.584-10.987 26.603-25.136 28.229l-0.131 0.012c-17.286 2.064-37.305 3.242-57.6 3.242s-40.314-1.178-59.993-3.468l2.393 0.227c-14.448-1.503-25.617-13.615-25.617-28.336 0-0.343 0.006-0.685 0.018-1.026l-0.001 0.049c0.043-1.175 0.068-2.555 0.068-3.94 0-47.242-28.756-87.767-69.719-105.028l-0.749-0.28c-12.333-4.743-26.602-7.49-41.513-7.49-33.571 0-63.89 13.927-85.493 36.319l-0.034 0.036c-5.259 5.721-12.778 9.293-21.131 9.293-6.658 0-12.785-2.269-17.652-6.076l0.063 0.047c-31.117-24.423-58.419-51.319-82.454-80.97l-0.746-0.95c-3.918-4.831-6.29-11.054-6.29-17.831 0-8.351 3.603-15.861 9.338-21.060l0.024-0.021c23.058-20.82 37.487-50.819 37.487-84.189 0-15.816-3.241-30.875-9.096-44.549l0.281 0.738c-19.309-40.92-60.227-68.73-107.641-68.73-1.308 0-2.61 0.021-3.908 0.063l0.189-0.005c-0.556 0.039-1.204 0.062-1.858 0.062-14.464 0-26.357-11.004-27.765-25.097l-0.009-0.116c-2.114-17.47-3.32-37.698-3.32-58.208s1.206-40.739 3.551-60.619l-0.231 2.411c3.997-14.606 17.151-25.164 32.77-25.164 0.314 0 0.627 0.004 0.94 0.013l-0.046-0.001c0.376 0.005 0.819 0.007 1.263 0.007 46.965 0 87.21-28.776 104.064-69.659l0.273-0.748c5.262-12.628 8.319-27.299 8.319-42.683 0-33.187-14.223-63.052-36.905-83.832l-0.085-0.077c-5.642-5.209-9.164-12.644-9.164-20.9 0-6.628 2.27-12.727 6.074-17.561l-0.046 0.061c24.234-30.594 50.869-57.473 80.187-81.165l0.965-0.755c4.852-3.912 11.091-6.279 17.884-6.279 8.372 0 15.904 3.596 21.136 9.329l0.020 0.022c21.577 22.578 51.928 36.614 85.558 36.614 15.263 0 29.85-2.891 43.245-8.156l-0.803 0.278c41.244-17.626 69.621-57.849 69.621-104.699 0-2.253-0.066-4.491-0.195-6.712l0.014 0.307c-0.029-0.477-0.045-1.036-0.045-1.598 0-14.572 10.944-26.588 25.061-28.277l0.135-0.013c17.286-2.072 37.305-3.255 57.6-3.255s40.314 1.182 59.991 3.482l-2.391-0.227c14.448 1.503 25.617 13.615 25.617 28.336 0 0.343-0.006 0.685-0.018 1.026l0.001-0.049c-0.044 1.181-0.069 2.568-0.069 3.962 0 47.219 28.761 87.721 69.72 104.943l0.749 0.28c12.36 4.774 26.662 7.54 41.611 7.54 33.57 0 63.882-13.948 85.457-36.366l0.036-0.038c5.266-5.686 12.771-9.233 21.104-9.233 6.667 0 12.804 2.271 17.679 6.080l-0.063-0.048c31.109 24.417 58.409 51.29 82.457 80.911l0.743 0.945c3.932 4.828 6.314 11.054 6.314 17.837 0 8.354-3.613 15.864-9.361 21.052l-0.025 0.022c-23.086 20.822-37.533 50.839-37.533 84.231 0 15.8 3.235 30.845 9.078 44.508l-0.281-0.739c18.077 40.945 58.197 69.068 104.92 69.376h6.44c0.501-0.031 1.086-0.049 1.676-0.049 14.564 0 26.58 10.907 28.326 24.998l0.014 0.139c1.952 16.77 3.065 36.2 3.065 55.89 0 21.082-1.276 41.865-3.756 62.277l0.243-2.455zM575.68 276.16c-94.139 0.219-170.368 76.583-170.368 170.752 0 94.304 76.448 170.752 170.752 170.752s170.752-76.448 170.752-170.752v0c-0.219-94.351-76.755-170.752-171.136-170.752 0 0 0 0-0.001 0v0z" />
<glyph unicode="&#xe909;" glyph-name="target" horiz-adv-x="846" d="M552.426 295.112c17.008 29.482 48.362 49.006 84.276 49.006 0.878 0 1.753-0.012 2.625-0.035l-0.129 0.003c2.018-0.279 4.351-0.438 6.72-0.438 28.597 0 51.779 23.182 51.779 51.779 0 1.989-0.112 3.953-0.331 5.884l0.022-0.237c-0.009 0.486-0.014 1.060-0.014 1.635 0 35.788 20.040 66.895 49.511 82.711l0.501 0.246c18.747 7.669 31.713 25.769 31.713 46.897 0 11.622-3.924 22.328-10.519 30.866l0.087-0.117c-8.792 13.906-14.010 30.83-14.010 48.974s5.218 35.068 14.235 49.356l-0.225-0.382c6.525 8.411 10.46 19.116 10.46 30.739 0 21.115-12.984 39.196-31.404 46.696l-0.337 0.121c-29.98 16.131-50.015 47.285-50.015 83.119 0 0.627 0.006 1.253 0.018 1.877l-0.001-0.093c0.191 1.669 0.3 3.603 0.3 5.563 0 28.572-23.162 51.734-51.734 51.734-2.382 0-4.727-0.161-7.023-0.473l0.267 0.030c-0.713-0.019-1.553-0.030-2.395-0.030-35.943 0-67.326 19.52-84.129 48.536l-0.25 0.467c-8.469 18.428-26.768 30.994-48.002 30.994-11.8 0-22.693-3.88-31.474-10.435l0.139 0.099c-14.322-8.589-31.6-13.668-50.065-13.668s-35.743 5.079-50.514 13.917l0.449-0.249c-8.644 6.436-19.531 10.303-31.321 10.303-21.289 0-39.633-12.609-47.97-30.767l-0.135-0.328c-16.997-29.48-48.343-49.006-84.25-49.006-0.871 0-1.74 0.012-2.606 0.034l0.128-0.003c-2.029 0.282-4.374 0.443-6.756 0.443-28.547 0-51.69-23.142-51.69-51.69 0-1.96 0.109-3.894 0.321-5.797l-0.021 0.234c0.008-0.453 0.012-0.987 0.012-1.522 0-35.918-20.043-67.154-49.555-83.134l-0.499-0.247c-18.769-7.601-31.768-25.682-31.768-46.798 0-11.634 3.945-22.346 10.571-30.872l-0.085 0.114c8.836-13.893 14.081-30.821 14.081-48.974s-5.246-35.080-14.304-49.35l0.223 0.376c-6.54-8.422-10.485-19.144-10.485-30.788 0-21.132 12.995-39.23 31.429-46.737l0.337-0.121c30.024-16.094 50.099-47.257 50.099-83.11 0-0.521-0.004-1.041-0.013-1.56l0.001 0.078c-0.2-1.706-0.313-3.683-0.313-5.687 0-28.572 23.162-51.734 51.734-51.734 2.355 0 4.674 0.157 6.946 0.462l-0.266-0.029c0.744 0.020 1.619 0.032 2.497 0.032 35.914 0 67.268-19.524 84.027-48.538l0.249-0.468c8.444-18.458 26.751-31.051 47.999-31.051 11.803 0 22.698 3.886 31.476 10.447l-0.138-0.099c14.342 8.51 31.616 13.54 50.065 13.54s35.723-5.030 50.525-13.792l-0.461 0.252c8.642-6.479 19.546-10.375 31.36-10.375 21.285 0 39.616 12.648 47.888 30.838l0.134 0.33zM422.957 407.53c-0.639-0.007-1.394-0.011-2.15-0.011-113.577 0-205.801 91.42-207.101 204.688l-0.001 0.123c1.277 113.386 93.491 204.812 207.058 204.812 0.771 0 1.542-0.004 2.311-0.013l-0.117 0.001c0.652 0.007 1.422 0.012 2.194 0.012 113.568 0 205.782-91.425 207.057-204.691l0.001-0.121c-1.302-113.391-93.526-204.811-207.102-204.811-0.756 0-1.511 0.004-2.265 0.012l0.115-0.001zM203.286 314.034c-3.077-0.816-6.609-1.285-10.25-1.285-14.771 0-27.741 7.71-35.106 19.324l-0.101 0.17-157.162-301.857 125.997 13.846 69.721-102.4s145.185 296.114 145.185 294.155c-75.242 1.692-45.323 76.088-138.151 78.047zM685.991 320.534c-114.822-11.709-91.448-39.624-117.715-61.262-15.003-15.872-36.202-25.751-59.709-25.751-2.915 0-5.794 0.152-8.63 0.448l0.354-0.030 177.375-297.939 43.631 110.414 123.949-15.85zM466.81 657.475l-43.854 86.728-43.854-86.728-97.948-14.024 70.567-67.584-16.518-95.588 87.752 45.101 87.797-45.101-16.562 95.588 70.79 67.629z" />
<glyph unicode="&#xe90a;" glyph-name="timeline" horiz-adv-x="786" d="M555.342 468.304h182.202c26.846 0.085 48.586 21.825 48.67 48.662v84.869c-0.085 26.846-21.825 48.586-48.662 48.67h-182.21c-26.846-0.085-48.586-21.825-48.67-48.662v-27.887h-102.333v196.878c47.911 5.216 84.868 45.452 84.868 94.319 0 52.381-42.463 94.845-94.845 94.845s-94.845-42.463-94.845-94.845c0-46.201 33.034-84.686 76.771-93.125l0.596-0.096v-360.211h-97.341v27.879c-0.085 26.846-21.825 48.586-48.662 48.67h-182.21c-26.846-0.085-48.586-21.825-48.67-48.662v-84.869c0.085-26.846 21.825-48.586 48.662-48.67h182.21c26.846 0.085 48.586 21.825 48.67 48.662v29.535h97.341v-394.355l-72.132 72.132c-2.897 2.717-6.805 4.385-11.103 4.385-8.974 0-16.248-7.275-16.248-16.248 0-4.248 1.63-8.116 4.3-11.011l-0.010 0.011 97.016-98.364c4.062-2.849 9.108-4.552 14.551-4.552s10.489 1.704 14.633 4.607l-0.082-0.055 97.016 98.364c2.659 2.884 4.289 6.751 4.289 11 0 8.974-7.275 16.248-16.248 16.248-4.298 0-8.206-1.669-11.112-4.394l0.009 0.008-77.373-77.373v257.329h102.333v-29.527c0.085-26.846 21.825-48.586 48.662-48.67h182.21c26.846 0.085 48.586 21.825 48.67 48.662v84.869c-0.085 26.846-21.825 48.586-48.662 48.67h-182.21c-26.846-0.085-48.586-21.825-48.67-48.662v-27.887h-102.383v277.047h102.333v-29.527c0.085-26.846 21.825-48.586 48.662-48.67h0.008z" />
<glyph unicode="&#xe90b;" glyph-name="trend-report" horiz-adv-x="1195" d="M80.953 153.259v-195.413c0-0.034 0-0.075 0-0.116 0-11.902 9.568-21.569 21.432-21.73h149.917c11.953 0.065 21.618 9.769 21.618 21.731 0 0.020 0 0.040 0 0.060v-0.003 343.836l-108.942-109.625c-21.661-21.938-50.966-36.285-83.589-38.715l-0.436-0.026zM348.331 304.128v-346.283c0-0.017 0-0.037 0-0.057 0-11.962 9.665-21.667 21.612-21.731h149.851c11.953 0.065 21.618 9.769 21.618 21.731 0 0.020 0 0.040 0 0.060v-0.003 203.833c-35.292 0.676-67.037 15.319-90.042 38.614l-0.013 0.013zM615.708 183.239v-225.394c0-0.017 0-0.037 0-0.057 0-11.962 9.665-21.667 21.612-21.731h150.022c11.953 0.065 21.618 9.769 21.618 21.731 0 0.020 0 0.040 0 0.060v-0.003 415.858l-171.804-173.17c-6.271-6.378-13.179-12.093-20.632-17.054l-0.474-0.297zM1061.66 629.362l-178.119-180.11v-491.463c0-0.017 0-0.037 0-0.057 0-11.962 9.665-21.667 21.612-21.731h149.738c11.953 0.065 21.618 9.769 21.618 21.731 0 0.020 0 0.040 0 0.060v-0.003 657.92c-4.892 4.21-8.59 7.908-11.378 10.411zM1184.484 948.622c-7.44 7.111-17.546 11.487-28.673 11.487-1.061 0-2.112-0.040-3.153-0.118l0.139 0.008h-3.641c-69.689-3.243-139.15-6.713-208.896-9.899-0.668 0.036-1.45 0.056-2.236 0.056-11.511 0-22.009-4.339-29.947-11.47l0.041 0.037c-3.14-3.196-5.708-6.968-7.53-11.139l-0.093-0.239c-2.047-4.427-3.241-9.607-3.241-15.066 0-11.778 5.558-22.258 14.194-28.96l0.083-0.062 17.408-17.863c12.004-12.402 24.292-24.747 36.58-36.921l-420.978-425.301-189.668 191.204c-10.851 11.068-25.957 17.929-42.667 17.929s-31.816-6.861-42.657-17.919l-0.010-0.010-251.904-254.123c-10.924-11.034-17.673-26.219-17.673-42.98s6.749-31.946 17.678-42.985l11.373-11.373c10.851-11.068 25.957-17.929 42.667-17.929s31.816 6.861 42.657 17.919l0.010 0.010 197.803 199.908 189.212-190.976c10.89-10.984 25.984-17.784 42.667-17.784s31.777 6.8 42.662 17.78l475.197 479.578 53.76-53.988c6.798-8.589 16.864-14.334 28.289-15.349l0.155-0.011c6.298 0.105 12.169 1.845 17.233 4.812l-0.166-0.090c4.109 2.141 7.645 4.679 10.773 7.643l-0.021-0.020c8.088 8.938 13.038 20.849 13.038 33.915 0 0.357-0.004 0.713-0.011 1.068l0.001-0.053c1.991 45.511 4.153 91.022 6.372 136.988l3.356 68.608c0.229 1.662 0.359 3.583 0.359 5.535 0 10.796-3.994 20.66-10.585 28.193l0.043-0.050z" />
<glyph unicode="&#xe90c;" glyph-name="down-arrow" d="M68.608 705.024c45.499 77.811 108.52 140.848 183.913 185.066l2.401 1.302c72.493 43.13 159.841 68.623 253.144 68.623 1.383 0 2.765-0.006 4.146-0.017l-0.212 0.001c1.126 0.009 2.457 0.014 3.79 0.014 93.339 0 180.719-25.514 255.547-69.948l-2.313 1.272c77.819-45.51 140.859-108.549 185.066-183.966l1.302-2.402c43.129-72.464 68.623-159.783 68.623-253.056 0-1.376-0.006-2.751-0.017-4.124l0.001 0.21c0.009-1.126 0.014-2.457 0.014-3.79 0-93.339-25.514-180.719-69.948-255.547l1.272 2.313c-45.515-77.814-108.554-140.853-183.965-185.066l-2.403-1.302c-72.493-43.129-159.841-68.623-253.143-68.623-1.346 0-2.69 0.005-4.033 0.016l0.206-0.001c-1.126-0.009-2.457-0.014-3.79-0.014-93.339 0-180.719 25.514-255.547 69.948l2.313-1.272c-77.814 45.515-140.853 108.554-185.066 183.965l-1.302 2.403c-43.129 72.493-68.623 159.841-68.623 253.143 0 1.346 0.005 2.69 0.016 4.033l-0.001-0.206c-0.010 1.153-0.015 2.516-0.015 3.881 0 93.302 25.494 180.65 69.895 255.458l-1.272-2.315zM179.955 417.334l302.026-302.080c7.788-7.426 18.356-11.995 29.992-11.995s22.205 4.569 30.010 12.012l-0.017-0.016 302.080 302.026c7.429 7.796 12.001 18.374 12.001 30.019s-4.571 22.223-12.017 30.037l0.017-0.018-60.685 60.685c-7.617 7.825-18.251 12.679-30.019 12.679s-22.403-4.854-30.010-12.67l-126.015-126.015v334.686c-0.241 23.476-19.208 42.444-42.662 42.684h-85.338c-23.476-0.241-42.444-19.208-42.684-42.662v-334.709l-126.006 126.006c-7.788 7.426-18.356 11.995-29.992 11.995s-22.205-4.569-30.010-12.012l0.017 0.016-60.685-60.685c-7.426-7.788-11.995-18.356-11.995-29.992s4.569-22.205 12.012-30.010l-0.016 0.017z" />
<glyph unicode="&#xe90e;" d="M1024 448c0-282.77-229.23-512-512-512s-512 229.23-512 512c0 282.77 229.23 512 512 512s512-229.23 512-512z" />
<glyph unicode="&#xe90f;" d="M666.531 744.625v16.756c-0.229 19.259-15.895 34.783-35.186 34.783-0.191 0-0.381-0.002-0.571-0.005h-58.562c4.804 8.529 7.634 18.724 7.634 29.58 0 0.113 0 0.225-0.001 0.338v-0.017c-1.232 35.587-30.377 63.968-66.15 63.968s-64.919-28.381-66.147-63.855l-0.003-0.112c0-0.084-0.001-0.183-0.001-0.283 0-10.871 2.837-21.080 7.811-29.925l-0.159 0.307h-48.072c-0.162 0.003-0.353 0.004-0.544 0.004-19.229 0-34.853-15.432-35.165-34.586v-16.785h-79.63c-0.24 0.004-0.523 0.006-0.807 0.006-29.167 0-52.866-23.41-53.334-52.465l-0.001-0.044v-517.585c0.458-29.108 24.161-52.528 53.335-52.528 0.284 0 0.567 0.002 0.849 0.007l-0.043-0.001h454.284c0.246-0.004 0.536-0.006 0.826-0.006 29.171 0 52.875 23.408 53.352 52.465l0.001 0.045v517.455c-0.478 29.102-24.182 52.51-53.353 52.51-0.29 0-0.58-0.002-0.87-0.007l0.044 0.001h-79.537zM474.28 825.949c-0.007 0.283-0.011 0.615-0.011 0.949 0 21.768 17.647 39.415 39.415 39.415s39.415-17.647 39.415-39.415c0-12.458-5.78-23.567-14.805-30.789l-0.078-0.061h-49.096c-8.935 7.026-14.667 17.777-14.838 29.873v0.028zM746.105 205.964c-0.291-17.894-14.865-32.288-32.801-32.288-0.178 0-0.356 0.001-0.534 0.004h-387.697c-0.145-0.002-0.317-0.004-0.488-0.004-17.936 0-32.51 14.394-32.801 32.26v453.92c0.281 17.892 14.851 32.288 32.783 32.288 0.185 0 0.369-0.002 0.553-0.005h46.257c0.187-14.252 11.784-25.734 26.063-25.734 0.158 0 0.315 0.001 0.473 0.004h242.012c0.161-0.004 0.351-0.006 0.542-0.006 14.28 0 25.877 11.483 26.063 25.718v0.018h46.285c0.151 0.002 0.329 0.004 0.507 0.004 17.936 0 32.51-14.394 32.801-32.261v-453.92zM391.633 621.149c24.586-0.787 44.218-20.906 44.218-45.611 0-25.203-20.431-45.633-45.633-45.633s-45.633 20.431-45.633 45.633c0 0.005 0 0.011 0 0.016v-0.001c0.416 25.273 21.001 45.601 46.335 45.601 0.251 0 0.501-0.002 0.751-0.006h-0.038zM659.363 601.004h-160.396c-0.358 0.018-0.777 0.028-1.199 0.028-14.221 0-25.749-11.528-25.749-25.749s11.528-25.749 25.749-25.749c0.422 0 0.841 0.010 1.258 0.030l-0.059-0.002h160.526c14.197 0.032 25.693 11.548 25.693 25.749 0 14.221-11.528 25.749-25.749 25.749-0.020 0-0.039 0-0.059 0h0.003zM391.633 491.79c24.586-0.787 44.218-20.906 44.218-45.611 0-25.203-20.431-45.633-45.633-45.633s-45.631 20.429-45.633 45.63v0c0.375 25.306 20.976 45.676 46.336 45.676 0.25 0 0.5-0.002 0.75-0.006h-0.038zM659.363 472.464h-160.396c-0.417 0.024-0.906 0.037-1.397 0.037-14.488 0-26.233-11.745-26.233-26.233s11.745-26.233 26.233-26.233c0.491 0 0.98 0.014 1.465 0.040l-0.067-0.003h160.526c0.191-0.005 0.415-0.008 0.641-0.008 14.488 0 26.233 11.745 26.233 26.233s-11.745 26.233-26.233 26.233c-0.265 0-0.528-0.004-0.791-0.012l0.039 0.001zM391.633 353.531c24.586-0.787 44.218-20.906 44.218-45.611 0-25.203-20.431-45.633-45.633-45.633s-45.631 20.429-45.633 45.63v0c0.375 25.306 20.976 45.676 46.336 45.676 0.25 0 0.5-0.002 0.75-0.006h-0.038zM659.363 334.262h-160.396c-0.208 0.006-0.453 0.009-0.699 0.009-14.498 0-26.252-11.753-26.252-26.252s11.753-26.252 26.252-26.252c0.246 0 0.491 0.003 0.735 0.010l-0.036-0.001h160.526c14.49 0.032 26.224 11.785 26.224 26.28 0 14.514-11.766 26.28-26.28 26.28-0.020 0-0.039 0-0.059 0h0.003z" />
<glyph unicode="&#xe910;" glyph-name="Up-arrow" d="M68.608 190.976c45.501-77.809 108.521-140.846 183.912-185.066l2.402-1.302c72.493-43.13 159.841-68.623 253.144-68.623 1.383 0 2.765 0.006 4.146 0.017l-0.212-0.001c1.126-0.009 2.457-0.014 3.79-0.014 93.339 0 180.719 25.514 255.547 69.948l-2.313-1.272c77.819 45.51 140.859 108.549 185.066 183.966l1.302 2.402c43.129 72.459 68.623 159.773 68.623 253.042 0 1.381-0.006 2.761-0.017 4.14l0.001-0.211c0.009 1.126 0.014 2.457 0.014 3.79 0 93.339-25.514 180.719-69.948 255.547l1.272-2.313c-45.515 77.814-108.554 140.853-183.965 185.066l-2.403 1.302c-72.493 43.129-159.841 68.623-253.143 68.623-1.346 0-2.69-0.005-4.033-0.016l0.206 0.001c-1.153 0.010-2.516 0.015-3.881 0.015-93.302 0-180.65-25.494-255.458-69.895l2.315 1.272c-77.814-45.515-140.853-108.554-185.066-183.965l-1.302-2.403c-43.129-72.493-68.623-159.841-68.623-253.143 0-1.364 0.005-2.728 0.016-4.089l-0.001 0.209c-0.010-1.153-0.015-2.516-0.015-3.881 0-93.302 25.494-180.65 69.895-255.458l-1.272 2.315zM179.955 478.666l302.026 302.026c7.788 7.426 18.356 11.995 29.992 11.995s22.205-4.569 30.010-12.012l-0.017 0.016 302.080-302.026c7.429-7.796 12.001-18.374 12.001-30.019s-4.571-22.223-12.017-30.037l0.017 0.018-60.685-60.632c-7.617-7.825-18.251-12.679-30.019-12.679s-22.403 4.854-30.010 12.67l-126.015 126.015v-334.686c-0.241-23.476-19.208-42.444-42.662-42.684h-85.338c-23.476 0.241-42.444 19.208-42.684 42.662v334.709l-126.006-126.006c-7.788-7.426-18.356-11.995-29.992-11.995s-22.205 4.569-30.010 12.012l0.017-0.016-60.685 60.685c-7.426 7.788-11.995 18.356-11.995 29.992s4.569 22.205 12.012 30.010l-0.016-0.017z" />
</font></defs></svg>