<?xml version="1.0" encoding="utf-8"?>
<!-- Generator: Adobe Illustrator 22.1.0, SVG Export Plug-In . SVG Version: 6.00 Build 0)  -->
<svg version="1.1" id="Layer_1" xmlns="http://www.w3.org/2000/svg" xmlns:xlink="http://www.w3.org/1999/xlink" x="0px" y="0px"
	 viewBox="0 0 100 100" style="enable-background:new 0 0 100 100;" xml:space="preserve">
<g>
	<path d="M49.7,81.9c-12.6,0-23.4-7.7-27.9-18.7l8-2.3l-21.6-21L1.1,69.2l8.1-2.3C15.3,83.3,31.1,95,49.7,95c14.9,0,28-7.5,35.8-19
		l-13.3-4.1C66.7,78.1,58.7,81.9,49.7,81.9z"/>
	<path d="M90.4,36.2C84.3,19.7,68.5,8,49.9,8c-14.9,0-28,7.5-35.8,19l13.6,4.1c5.5-5.9,13.3-9.6,22-9.6c12.4,0,23.1,7.5,27.7,18.3
		L69.8,42l21.6,21l7.2-29.3L90.4,36.2z"/>
</g>
</svg>
